SegundoProjetoSD-master/Projeto/simulation/qsim/CPU.msim.vcd
$comment
	File created using the following command:
		vcd file CPU.msim.vcd -direction
$end
$date
	Tue Dec 13 19:20:11 2016
$end
$version
	ModelSim Version 10.1d
$end
$timescale
	1ps
$end
$scope module CPU_vlg_vec_tst $end
$var reg 1 ! clk $end
$var wire 1 " memoryFunction [3] $end
$var wire 1 # memoryFunction [2] $end
$var wire 1 $ memoryFunction [1] $end
$var wire 1 % memoryFunction [0] $end
$var wire 1 & memoryValue [3] $end
$var wire 1 ' memoryValue [2] $end
$var wire 1 ( memoryValue [1] $end
$var wire 1 ) memoryValue [0] $end
$var wire 1 * outPC [3] $end
$var wire 1 + outPC [2] $end
$var wire 1 , outPC [1] $end
$var wire 1 - outPC [0] $end
$var wire 1 . outULA [3] $end
$var wire 1 / outULA [2] $end
$var wire 1 0 outULA [1] $end
$var wire 1 1 outULA [0] $end
$var wire 1 2 outX [3] $end
$var wire 1 3 outX [2] $end
$var wire 1 4 outX [1] $end
$var wire 1 5 outX [0] $end
$var wire 1 6 outY [3] $end
$var wire 1 7 outY [2] $end
$var wire 1 8 outY [1] $end
$var wire 1 9 outY [0] $end
$var wire 1 : outZ [3] $end
$var wire 1 ; outZ [2] $end
$var wire 1 < outZ [1] $end
$var wire 1 = outZ [0] $end
$var wire 1 > tULA $end
$var wire 1 ? tX [1] $end
$var wire 1 @ tX [0] $end
$var wire 1 A tY [1] $end
$var wire 1 B tY [0] $end
$var wire 1 C tZ [1] $end
$var wire 1 D tZ [0] $end
$var wire 1 E sampler $end
$scope module i1 $end
$var wire 1 F gnd $end
$var wire 1 G vcc $end
$var wire 1 H unknown $end
$var tri1 1 I devclrn $end
$var tri1 1 J devpor $end
$var tri1 1 K devoe $end
$var wire 1 L clk~combout $end
$var wire 1 M blockMemory|Mux5~0_combout $end
$var wire 1 N blockUC|Decoder0~0_combout $end
$var wire 1 O blockUC|Mux4~0_combout $end
$var wire 1 P blockUC|Mux3~0_combout $end
$var wire 1 Q blockMemory|Mux1~0_combout $end
$var wire 1 R regX|Mux2~0_combout $end
$var wire 1 S blockMemory|Mux0~0_combout $end
$var wire 1 T blockULA|Add0~0_combout $end
$var wire 1 U blockUC|Mux4~1_combout $end
$var wire 1 V blockUC|Mux1~0_combout $end
$var wire 1 W blockUC|tULA~0_combout $end
$var wire 1 X blockUC|tULA~combout $end
$var wire 1 Y blockULA|Add0~2 $end
$var wire 1 Z blockULA|Add0~2COUT1_25 $end
$var wire 1 [ blockULA|Add0~7 $end
$var wire 1 \ blockULA|Add0~7COUT1_27 $end
$var wire 1 ] blockULA|Add0~12 $end
$var wire 1 ^ blockULA|Add0~12COUT1_29 $end
$var wire 1 _ blockULA|Add0~15_combout $end
$var wire 1 ` blockULA|out[3]~3_combout $end
$var wire 1 a regY|Mux3~0_combout $end
$var wire 1 b blockULA|Add0~10_combout $end
$var wire 1 c regY|Mux0~0_combout $end
$var wire 1 d blockULA|Add0~5_combout $end
$var wire 1 e blockUC|Mux0~0_combout $end
$var wire 1 f regZ|out[0]~0_combout $end
$var wire 1 g blockULA|out[0]~0_combout $end
$var wire 1 h blockULA|out[1]~1_combout $end
$var wire 1 i blockULA|out[2]~2_combout $end
$var wire 1 j blockUC|tZ [1] $end
$var wire 1 k blockUC|tZ [0] $end
$var wire 1 l regY|out [3] $end
$var wire 1 m regY|out [2] $end
$var wire 1 n regY|out [1] $end
$var wire 1 o regY|out [0] $end
$var wire 1 p regZ|out [3] $end
$var wire 1 q regZ|out [2] $end
$var wire 1 r regZ|out [1] $end
$var wire 1 s regZ|out [0] $end
$var wire 1 t blockMemory|func [2] $end
$var wire 1 u blockMemory|func [1] $end
$var wire 1 v blockMemory|func [0] $end
$var wire 1 w blockMemory|value [3] $end
$var wire 1 x blockMemory|value [2] $end
$var wire 1 y blockMemory|value [1] $end
$var wire 1 z blockMemory|value [0] $end
$var wire 1 { regX|out [3] $end
$var wire 1 | regX|out [2] $end
$var wire 1 } regX|out [1] $end
$var wire 1 ~ regX|out [0] $end
$var wire 1 !! blockPC|out [3] $end
$var wire 1 "! blockPC|out [2] $end
$var wire 1 #! blockPC|out [1] $end
$var wire 1 $! blockPC|out [0] $end
$var wire 1 %! blockUC|tY [1] $end
$var wire 1 &! blockUC|tY [0] $end
$var wire 1 '! blockUC|tX [1] $end
$var wire 1 (! blockUC|tX [0] $end
$upscope $end
$upscope $end
$enddefinitions $end
#0
$dumpvars
0!
0%
0$
0#
0"
0)
0(
0'
0&
0-
0,
0+
0*
01
00
0/
0.
05
04
03
02
09
08
07
06
0=
0<
0;
0:
0>
1@
1?
1B
1A
1D
1C
xE
0F
1G
xH
1I
1J
1K
0L
0M
0N
1O
0P
0Q
0R
0S
0T
1U
0V
0W
0X
0Y
0Z
1[
1\
0]
0^
0_
0`
0a
0b
1c
0d
0e
1f
0g
0h
0i
1k
zj
0o
0n
0m
0l
0s
0r
0q
0p
0v
0u
0t
zz
0y
0x
zw
0~
0}
0|
z{
0$!
0#!
0"!
0!!
1&!
1%!
1(!
1'!
$end
#4000
1!
1L
0E
#8000
0!
0L
1E
1$!
1Q
1v
1-
1x
1e
1V
0U
0O
1%
0k
0&!
0%!
0'!
1'
0f
0c
0D
0B
0A
0C
0?
#12000
1!
1L
0E
1|
1b
13
#16000
0!
0L
1E
1#!
0$!
1S
0Q
1u
0v
1,
0-
1y
0x
1W
0V
1$
0%
1X
1&!
1(
0'
1i
1a
1c
1>
1B
1/
#20000
1!
1L
0E
1m
1}
0|
1d
1R
17
14
03
1h
10
#24000
0!
0L
1E
1$!
0S
1v
1-
0y
1P
1%
0(!
0(
0@
#28000
1!
1L
0E
1n
0\
0[
0d
18
1^
1]
0b
0h
1_
0i
00
1`
0/
1.
#32000
0!
0L
1E
0#!
1"!
0$!
0u
1t
0v
0,
1+
0-
0W
1V
1U
0$
1#
0%
0X
0&!
1%!
0`
0>
0B
1A
0.
#36000
1!
1L
0E
1o
0m
1T
0^
0]
1b
19
07
0_
#40000
0!
0L
1E
1$!
1v
1-
0e
0U
1%
1k
0%!
1f
0c
0a
1D
0A
#44000
1!
1L
0E
1s
1r
1=
1<
#48000
0!
0L
1E
1#!
0$!
1u
0v
1,
0-
1e
1$
0%
0k
0f
0D
#52000
1!
1L
0E
#56000
0!
0L
1E
0#!
0"!
0u
0t
0,
0+
0e
0V
1U
0P
1O
0$
0#
1k
1&!
1%!
1(!
1'!
1f
1c
0R
1D
1B
1A
1@
1C
1?
#60000
1!
1L
0E
0s
0r
0o
0n
0}
0T
1\
1[
0=
0<
09
08
04
0b
#64000
0!
0L
1E
1$!
1Q
1v
1-
1x
1e
1V
0U
0O
1%
0k
0&!
0%!
0'!
1'
0f
0c
0D
0B
0A
0C
0?
#68000
1!
1L
0E
1|
1b
13
#72000
0!
0L
1E
1#!
0$!
1S
0Q
1u
0v
1,
0-
1y
0x
1W
0V
1$
0%
1X
1&!
1(
0'
1i
1a
1c
1>
1B
1/
#76000
1!
1L
0E
1m
1}
0|
1d
1R
17
14
03
1h
10
#80000
0!
0L
1E
1$!
0S
1v
1-
0y
1P
1%
0(!
0(
0@
#84000
1!
1L
0E
1n
0\
0[
0d
18
1^
1]
0b
0h
1_
0i
00
1`
0/
1.
#88000
0!
0L
1E
0#!
1"!
0$!
0u
1t
0v
0,
1+
0-
0W
1V
1U
0$
1#
0%
0X
0&!
1%!
0`
0>
0B
1A
0.
#92000
1!
1L
0E
1o
0m
1T
0^
0]
1b
19
07
0_
#96000
0!
0L
1E
1$!
1v
1-
0e
0U
1%
1k
0%!
1f
0c
0a
1D
0A
#100000
1!
1L
0E
1s
1r
1=
1<
#104000
0!
0L
1E
1#!
0$!
1u
0v
1,
0-
1e
1$
0%
0k
0f
0D
#108000
1!
1L
0E
#112000
0!
0L
1E
0#!
0"!
0u
0t
0,
0+
0e
0V
1U
0P
1O
0$
0#
1k
1&!
1%!
1(!
1'!
1f
1c
0R
1D
1B
1A
1@
1C
1?
#116000
1!
1L
0E
0s
0r
0o
0n
0}
0T
1\
1[
0=
0<
09
08
04
0b
#120000
0!
0L
1E
1$!
1Q
1v
1-
1x
1e
1V
0U
0O
1%
0k
0&!
0%!
0'!
1'
0f
0c
0D
0B
0A
0C
0?
#124000
1!
1L
0E
1|
1b
13
#128000
0!
0L
1E
1#!
0$!
1S
0Q
1u
0v
1,
0-
1y
0x
1W
0V
1$
0%
1X
1&!
1(
0'
1i
1a
1c
1>
1B
1/
#132000
1!
1L
0E
1m
1}
0|
1d
1R
17
14
03
1h
10
#136000
0!
0L
1E
1$!
0S
1v
1-
0y
1P
1%
0(!
0(
0@
#140000
1!
1L
0E
1n
0\
0[
0d
18
1^
1]
0b
0h
1_
0i
00
1`
0/
1.
#144000
0!
0L
1E
0#!
1"!
0$!
0u
1t
0v
0,
1+
0-
0W
1V
1U
0$
1#
0%
0X
0&!
1%!
0`
0>
0B
1A
0.
#148000
1!
1L
0E
1o
0m
1T
0^
0]
1b
19
07
0_
#152000
0!
0L
1E
1$!
1v
1-
0e
0U
1%
1k
0%!
1f
0c
0a
1D
0A
#156000
1!
1L
0E
1s
1r
1=
1<
#160000
0!
0L
1E
1#!
0$!
1u
0v
1,
0-
1e
1$
0%
0k
0f
0D
#164000
1!
1L
0E
#168000
0!
0L
1E
0#!
0"!
0u
0t
0,
0+
0e
0V
1U
0P
1O
0$
0#
1k
1&!
1%!
1(!
1'!
1f
1c
0R
1D
1B
1A
1@
1C
1?
#172000
1!
1L
0E
0s
0r
0o
0n
0}
0T
1\
1[
0=
0<
09
08
04
0b
#176000
0!
0L
1E
1$!
1Q
1v
1-
1x
1e
1V
0U
0O
1%
0k
0&!
0%!
0'!
1'
0f
0c
0D
0B
0A
0C
0?
#180000
1!
1L
0E
1|
1b
13
#184000
0!
0L
1E
1#!
0$!
1S
0Q
1u
0v
1,
0-
1y
0x
1W
0V
1$
0%
1X
1&!
1(
0'
1i
1a
1c
1>
1B
1/
#188000
1!
1L
0E
1m
1}
0|
1d
1R
17
14
03
1h
10
#192000
0!
0L
1E
1$!
0S
1v
1-
0y
1P
1%
0(!
0(
0@
#196000
1!
1L
0E
1n
0\
0[
0d
18
1^
1]
0b
0h
1_
0i
00
1`
0/
1.
#200000
0!
0L
1E
0#!
1"!
0$!
0u
1t
0v
0,
1+
0-
0W
1V
1U
0$
1#
0%
0X
0&!
1%!
0`
0>
0B
1A
0.
#204000
1!
1L
0E
1o
0m
1T
0^
0]
1b
19
07
0_
#208000
0!
0L
1E
1$!
1v
1-
0e
0U
1%
1k
0%!
1f
0c
0a
1D
0A
#212000
1!
1L
0E
1s
1r
1=
1<
#216000
0!
0L
1E
1#!
0$!
1u
0v
1,
0-
1e
1$
0%
0k
0f
0D
#220000
1!
1L
0E
#224000
0!
0L
1E
0#!
0"!
0u
0t
0,
0+
0e
0V
1U
0P
1O
0$
0#
1k
1&!
1%!
1(!
1'!
1f
1c
0R
1D
1B
1A
1@
1C
1?
#228000
1!
1L
0E
0s
0r
0o
0n
0}
0T
1\
1[
0=
0<
09
08
04
0b
#232000
0!
0L
1E
1$!
1Q
1v
1-
1x
1e
1V
0U
0O
1%
0k
0&!
0%!
0'!
1'
0f
0c
0D
0B
0A
0C
0?
#236000
1!
1L
0E
1|
1b
13
#240000
0!
0L
1E
1#!
0$!
1S
0Q
1u
0v
1,
0-
1y
0x
1W
0V
1$
0%
1X
1&!
1(
0'
1i
1a
1c
1>
1B
1/
#244000
1!
1L
0E
1m
1}
0|
1d
1R
17
14
03
1h
10
#248000
0!
0L
1E
1$!
0S
1v
1-
0y
1P
1%
0(!
0(
0@
#252000
1!
1L
0E
1n
0\
0[
0d
18
1^
1]
0b
0h
1_
0i
00
1`
0/
1.
#256000
0!
0L
1E
0#!
1"!
0$!
0u
1t
0v
0,
1+
0-
0W
1V
1U
0$
1#
0%
0X
0&!
1%!
0`
0>
0B
1A
0.
#260000
1!
1L
0E
1o
0m
1T
0^
0]
1b
19
07
0_
#264000
0!
0L
1E
1$!
1v
1-
0e
0U
1%
1k
0%!
1f
0c
0a
1D
0A
#268000
1!
1L
0E
1s
1r
1=
1<
#272000
0!
0L
1E
1#!
0$!
1u
0v
1,
0-
1e
1$
0%
0k
0f
0D
#276000
1!
1L
0E
#280000
0!
0L
1E
0#!
0"!
0u
0t
0,
0+
0e
0V
1U
0P
1O
0$
0#
1k
1&!
1%!
1(!
1'!
1f
1c
0R
1D
1B
1A
1@
1C
1?
#284000
1!
1L
0E
0s
0r
0o
0n
0}
0T
1\
1[
0=
0<
09
08
04
0b
#288000
0!
0L
1E
1$!
1Q
1v
1-
1x
1e
1V
0U
0O
1%
0k
0&!
0%!
0'!
1'
0f
0c
0D
0B
0A
0C
0?
#292000
1!
1L
0E
1|
1b
13
#296000
0!
0L
1E
1#!
0$!
1S
0Q
1u
0v
1,
0-
1y
0x
1W
0V
1$
0%
1X
1&!
1(
0'
1i
1a
1c
1>
1B
1/
#300000
1!
1L
0E
1m
1}
0|
1d
1R
17
14
03
1h
10
#304000
0!
0L
1E
1$!
0S
1v
1-
0y
1P
1%
0(!
0(
0@
#308000
1!
1L
0E
1n
0\
0[
0d
18
1^
1]
0b
0h
1_
0i
00
1`
0/
1.
#312000
0!
0L
1E
0#!
1"!
0$!
0u
1t
0v
0,
1+
0-
0W
1V
1U
0$
1#
0%
0X
0&!
1%!
0`
0>
0B
1A
0.
#316000
1!
1L
0E
1o
0m
1T
0^
0]
1b
19
07
0_
#320000
0!
0L
1E
1$!
1v
1-
0e
0U
1%
1k
0%!
1f
0c
0a
1D
0A
#324000
1!
1L
0E
1s
1r
1=
1<
#328000
0!
0L
1E
1#!
0$!
1u
0v
1,
0-
1e
1$
0%
0k
0f
0D
#332000
1!
1L
0E
#336000
0!
0L
1E
0#!
0"!
0u
0t
0,
0+
0e
0V
1U
0P
1O
0$
0#
1k
1&!
1%!
1(!
1'!
1f
1c
0R
1D
1B
1A
1@
1C
1?
#340000
1!
1L
0E
0s
0r
0o
0n
0}
0T
1\
1[
0=
0<
09
08
04
0b
#344000
0!
0L
1E
1$!
1Q
1v
1-
1x
1e
1V
0U
0O
1%
0k
0&!
0%!
0'!
1'
0f
0c
0D
0B
0A
0C
0?
#348000
1!
1L
0E
1|
1b
13
#352000
0!
0L
1E
1#!
0$!
1S
0Q
1u
0v
1,
0-
1y
0x
1W
0V
1$
0%
1X
1&!
1(
0'
1i
1a
1c
1>
1B
1/
#356000
1!
1L
0E
1m
1}
0|
1d
1R
17
14
03
1h
10
#360000
0!
0L
1E
1$!
0S
1v
1-
0y
1P
1%
0(!
0(
0@
#364000
1!
1L
0E
1n
0\
0[
0d
18
1^
1]
0b
0h
1_
0i
00
1`
0/
1.
#368000
0!
0L
1E
0#!
1"!
0$!
0u
1t
0v
0,
1+
0-
0W
1V
1U
0$
1#
0%
0X
0&!
1%!
0`
0>
0B
1A
0.
#372000
1!
1L
0E
1o
0m
1T
0^
0]
1b
19
07
0_
#376000
0!
0L
1E
1$!
1v
1-
0e
0U
1%
1k
0%!
1f
0c
0a
1D
0A
#380000
1!
1L
0E
1s
1r
1=
1<
#384000
0!
0L
1E
1#!
0$!
1u
0v
1,
0-
1e
1$
0%
0k
0f
0D
#388000
1!
1L
0E
#392000
0!
0L
1E
0#!
0"!
0u
0t
0,
0+
0e
0V
1U
0P
1O
0$
0#
1k
1&!
1%!
1(!
1'!
1f
1c
0R
1D
1B
1A
1@
1C
1?
#396000
1!
1L
0E
0s
0r
0o
0n
0}
0T
1\
1[
0=
0<
09
08
04
0b
#400000
0!
0L
1E
1$!
1Q
1v
1-
1x
1e
1V
0U
0O
1%
0k
0&!
0%!
0'!
1'
0f
0c
0D
0B
0A
0C
0?
#404000
1!
1L
0E
1|
1b
13
#408000
0!
0L
1E
1#!
0$!
1S
0Q
1u
0v
1,
0-
1y
0x
1W
0V
1$
0%
1X
1&!
1(
0'
1i
1a
1c
1>
1B
1/
#412000
1!
1L
0E
1m
1}
0|
1d
1R
17
14
03
1h
10
#416000
0!
0L
1E
1$!
0S
1v
1-
0y
1P
1%
0(!
0(
0@
#420000
1!
1L
0E
1n
0\
0[
0d
18
1^
1]
0b
0h
1_
0i
00
1`
0/
1.
#424000
0!
0L
1E
0#!
1"!
0$!
0u
1t
0v
0,
1+
0-
0W
1V
1U
0$
1#
0%
0X
0&!
1%!
0`
0>
0B
1A
0.
#428000
1!
1L
0E
1o
0m
1T
0^
0]
1b
19
07
0_
#432000
0!
0L
1E
1$!
1v
1-
0e
0U
1%
1k
0%!
1f
0c
0a
1D
0A
#436000
1!
1L
0E
1s
1r
1=
1<
#440000
0!
0L
1E
1#!
0$!
1u
0v
1,
0-
1e
1$
0%
0k
0f
0D
#444000
1!
1L
0E
#448000
0!
0L
1E
0#!
0"!
0u
0t
0,
0+
0e
0V
1U
0P
1O
0$
0#
1k
1&!
1%!
1(!
1'!
1f
1c
0R
1D
1B
1A
1@
1C
1?
#452000
1!
1L
0E
0s
0r
0o
0n
0}
0T
1\
1[
0=
0<
09
08
04
0b
#456000
0!
0L
1E
1$!
1Q
1v
1-
1x
1e
1V
0U
0O
1%
0k
0&!
0%!
0'!
1'
0f
0c
0D
0B
0A
0C
0?
#460000
1!
1L
0E
1|
1b
13
#464000
0!
0L
1E
1#!
0$!
1S
0Q
1u
0v
1,
0-
1y
0x
1W
0V
1$
0%
1X
1&!
1(
0'
1i
1a
1c
1>
1B
1/
#468000
1!
1L
0E
1m
1}
0|
1d
1R
17
14
03
1h
10
#472000
0!
0L
1E
1$!
0S
1v
1-
0y
1P
1%
0(!
0(
0@
#476000
1!
1L
0E
1n
0\
0[
0d
18
1^
1]
0b
0h
1_
0i
00
1`
0/
1.
#480000
0!
0L
1E
0#!
1"!
0$!
0u
1t
0v
0,
1+
0-
0W
1V
1U
0$
1#
0%
0X
0&!
1%!
0`
0>
0B
1A
0.
#484000
1!
1L
0E
1o
0m
1T
0^
0]
1b
19
07
0_
#488000
0!
0L
1E
1$!
1v
1-
0e
0U
1%
1k
0%!
1f
0c
0a
1D
0A
#492000
1!
1L
0E
1s
1r
1=
1<
#496000
0!
0L
1E
1#!
0$!
1u
0v
1,
0-
1e
1$
0%
0k
0f
0D
#500000
1!
1L
0E
#504000
0!
0L
1E
0#!
0"!
0u
0t
0,
0+
0e
0V
1U
0P
1O
0$
0#
1k
1&!
1%!
1(!
1'!
1f
1c
0R
1D
1B
1A
1@
1C
1?
#508000
1!
1L
0E
0s
0r
0o
0n
0}
0T
1\
1[
0=
0<
09
08
04
0b
#512000
0!
0L
1E
1$!
1Q
1v
1-
1x
1e
1V
0U
0O
1%
0k
0&!
0%!
0'!
1'
0f
0c
0D
0B
0A
0C
0?
#516000
1!
1L
0E
1|
1b
13
#520000
0!
0L
1E
1#!
0$!
1S
0Q
1u
0v
1,
0-
1y
0x
1W
0V
1$
0%
1X
1&!
1(
0'
1i
1a
1c
1>
1B
1/
#524000
1!
1L
0E
1m
1}
0|
1d
1R
17
14
03
1h
10
#528000
0!
0L
1E
1$!
0S
1v
1-
0y
1P
1%
0(!
0(
0@
#532000
1!
1L
0E
1n
0\
0[
0d
18
1^
1]
0b
0h
1_
0i
00
1`
0/
1.
#536000
0!
0L
1E
0#!
1"!
0$!
0u
1t
0v
0,
1+
0-
0W
1V
1U
0$
1#
0%
0X
0&!
1%!
0`
0>
0B
1A
0.
#540000
1!
1L
0E
1o
0m
1T
0^
0]
1b
19
07
0_
#544000
0!
0L
1E
1$!
1v
1-
0e
0U
1%
1k
0%!
1f
0c
0a
1D
0A
#548000
1!
1L
0E
1s
1r
1=
1<
#552000
0!
0L
1E
1#!
0$!
1u
0v
1,
0-
1e
1$
0%
0k
0f
0D
#556000
1!
1L
0E
#560000
0!
0L
1E
0#!
0"!
0u
0t
0,
0+
0e
0V
1U
0P
1O
0$
0#
1k
1&!
1%!
1(!
1'!
1f
1c
0R
1D
1B
1A
1@
1C
1?
#564000
1!
1L
0E
0s
0r
0o
0n
0}
0T
1\
1[
0=
0<
09
08
04
0b
#568000
0!
0L
1E
1$!
1Q
1v
1-
1x
1e
1V
0U
0O
1%
0k
0&!
0%!
0'!
1'
0f
0c
0D
0B
0A
0C
0?
#572000
1!
1L
0E
1|
1b
13
#576000
0!
0L
1E
1#!
0$!
1S
0Q
1u
0v
1,
0-
1y
0x
1W
0V
1$
0%
1X
1&!
1(
0'
1i
1a
1c
1>
1B
1/
#580000
1!
1L
0E
1m
1}
0|
1d
1R
17
14
03
1h
10
#584000
0!
0L
1E
1$!
0S
1v
1-
0y
1P
1%
0(!
0(
0@
#588000
1!
1L
0E
1n
0\
0[
0d
18
1^
1]
0b
0h
1_
0i
00
1`
0/
1.
#592000
0!
0L
1E
0#!
1"!
0$!
0u
1t
0v
0,
1+
0-
0W
1V
1U
0$
1#
0%
0X
0&!
1%!
0`
0>
0B
1A
0.
#596000
1!
1L
0E
1o
0m
1T
0^
0]
1b
19
07
0_
#600000
0!
0L
1E
1$!
1v
1-
0e
0U
1%
1k
0%!
1f
0c
0a
1D
0A
#604000
1!
1L
0E
1s
1r
1=
1<
#608000
0!
0L
1E
1#!
0$!
1u
0v
1,
0-
1e
1$
0%
0k
0f
0D
#612000
1!
1L
0E
#616000
0!
0L
1E
0#!
0"!
0u
0t
0,
0+
0e
0V
1U
0P
1O
0$
0#
1k
1&!
1%!
1(!
1'!
1f
1c
0R
1D
1B
1A
1@
1C
1?
#620000
1!
1L
0E
0s
0r
0o
0n
0}
0T
1\
1[
0=
0<
09
08
04
0b
#624000
0!
0L
1E
1$!
1Q
1v
1-
1x
1e
1V
0U
0O
1%
0k
0&!
0%!
0'!
1'
0f
0c
0D
0B
0A
0C
0?
#628000
1!
1L
0E
1|
1b
13
#632000
0!
0L
1E
1#!
0$!
1S
0Q
1u
0v
1,
0-
1y
0x
1W
0V
1$
0%
1X
1&!
1(
0'
1i
1a
1c
1>
1B
1/
#636000
1!
1L
0E
1m
1}
0|
1d
1R
17
14
03
1h
10
#640000
0!
0L
1E
1$!
0S
1v
1-
0y
1P
1%
0(!
0(
0@
#644000
1!
1L
0E
1n
0\
0[
0d
18
1^
1]
0b
0h
1_
0i
00
1`
0/
1.
#648000
0!
0L
1E
0#!
1"!
0$!
0u
1t
0v
0,
1+
0-
0W
1V
1U
0$
1#
0%
0X
0&!
1%!
0`
0>
0B
1A
0.
#652000
1!
1L
0E
1o
0m
1T
0^
0]
1b
19
07
0_
#656000
0!
0L
1E
1$!
1v
1-
0e
0U
1%
1k
0%!
1f
0c
0a
1D
0A
#660000
1!
1L
0E
1s
1r
1=
1<
#664000
0!
0L
1E
1#!
0$!
1u
0v
1,
0-
1e
1$
0%
0k
0f
0D
#668000
1!
1L
0E
#672000
0!
0L
1E
0#!
0"!
0u
0t
0,
0+
0e
0V
1U
0P
1O
0$
0#
1k
1&!
1%!
1(!
1'!
1f
1c
0R
1D
1B
1A
1@
1C
1?
#676000
1!
1L
0E
0s
0r
0o
0n
0}
0T
1\
1[
0=
0<
09
08
04
0b
#680000
0!
0L
1E
1$!
1Q
1v
1-
1x
1e
1V
0U
0O
1%
0k
0&!
0%!
0'!
1'
0f
0c
0D
0B
0A
0C
0?
#684000
1!
1L
0E
1|
1b
13
#688000
0!
0L
1E
1#!
0$!
1S
0Q
1u
0v
1,
0-
1y
0x
1W
0V
1$
0%
1X
1&!
1(
0'
1i
1a
1c
1>
1B
1/
#692000
1!
1L
0E
1m
1}
0|
1d
1R
17
14
03
1h
10
#696000
0!
0L
1E
1$!
0S
1v
1-
0y
1P
1%
0(!
0(
0@
#700000
1!
1L
0E
1n
0\
0[
0d
18
1^
1]
0b
0h
1_
0i
00
1`
0/
1.
#704000
0!
0L
1E
0#!
1"!
0$!
0u
1t
0v
0,
1+
0-
0W
1V
1U
0$
1#
0%
0X
0&!
1%!
0`
0>
0B
1A
0.
#708000
1!
1L
0E
1o
0m
1T
0^
0]
1b
19
07
0_
#712000
0!
0L
1E
1$!
1v
1-
0e
0U
1%
1k
0%!
1f
0c
0a
1D
0A
#716000
1!
1L
0E
1s
1r
1=
1<
#720000
0!
0L
1E
1#!
0$!
1u
0v
1,
0-
1e
1$
0%
0k
0f
0D
#724000
1!
1L
0E
#728000
0!
0L
1E
0#!
0"!
0u
0t
0,
0+
0e
0V
1U
0P
1O
0$
0#
1k
1&!
1%!
1(!
1'!
1f
1c
0R
1D
1B
1A
1@
1C
1?
#732000
1!
1L
0E
0s
0r
0o
0n
0}
0T
1\
1[
0=
0<
09
08
04
0b
#736000
0!
0L
1E
1$!
1Q
1v
1-
1x
1e
1V
0U
0O
1%
0k
0&!
0%!
0'!
1'
0f
0c
0D
0B
0A
0C
0?
#740000
1!
1L
0E
1|
1b
13
#744000
0!
0L
1E
1#!
0$!
1S
0Q
1u
0v
1,
0-
1y
0x
1W
0V
1$
0%
1X
1&!
1(
0'
1i
1a
1c
1>
1B
1/
#748000
1!
1L
0E
1m
1}
0|
1d
1R
17
14
03
1h
10
#752000
0!
0L
1E
1$!
0S
1v
1-
0y
1P
1%
0(!
0(
0@
#756000
1!
1L
0E
1n
0\
0[
0d
18
1^
1]
0b
0h
1_
0i
00
1`
0/
1.
#760000
0!
0L
1E
0#!
1"!
0$!
0u
1t
0v
0,
1+
0-
0W
1V
1U
0$
1#
0%
0X
0&!
1%!
0`
0>
0B
1A
0.
#764000
1!
1L
0E
1o
0m
1T
0^
0]
1b
19
07
0_
#768000
0!
0L
1E
1$!
1v
1-
0e
0U
1%
1k
0%!
1f
0c
0a
1D
0A
#772000
1!
1L
0E
1s
1r
1=
1<
#776000
0!
0L
1E
1#!
0$!
1u
0v
1,
0-
1e
1$
0%
0k
0f
0D
#780000
1!
1L
0E
#784000
0!
0L
1E
0#!
0"!
0u
0t
0,
0+
0e
0V
1U
0P
1O
0$
0#
1k
1&!
1%!
1(!
1'!
1f
1c
0R
1D
1B
1A
1@
1C
1?
#788000
1!
1L
0E
0s
0r
0o
0n
0}
0T
1\
1[
0=
0<
09
08
04
0b
#792000
0!
0L
1E
1$!
1Q
1v
1-
1x
1e
1V
0U
0O
1%
0k
0&!
0%!
0'!
1'
0f
0c
0D
0B
0A
0C
0?
#796000
1!
1L
0E
1|
1b
13
#800000
0!
0L
1E
1#!
0$!
1S
0Q
1u
0v
1,
0-
1y
0x
1W
0V
1$
0%
1X
1&!
1(
0'
1i
1a
1c
1>
1B
1/
#804000
1!
1L
0E
1m
1}
0|
1d
1R
17
14
03
1h
10
#808000
0!
0L
1E
1$!
0S
1v
1-
0y
1P
1%
0(!
0(
0@
#812000
1!
1L
0E
1n
0\
0[
0d
18
1^
1]
0b
0h
1_
0i
00
1`
0/
1.
#816000
0!
0L
1E
0#!
1"!
0$!
0u
1t
0v
0,
1+
0-
0W
1V
1U
0$
1#
0%
0X
0&!
1%!
0`
0>
0B
1A
0.
#820000
1!
1L
0E
1o
0m
1T
0^
0]
1b
19
07
0_
#824000
0!
0L
1E
1$!
1v
1-
0e
0U
1%
1k
0%!
1f
0c
0a
1D
0A
#828000
1!
1L
0E
1s
1r
1=
1<
#832000
0!
0L
1E
1#!
0$!
1u
0v
1,
0-
1e
1$
0%
0k
0f
0D
#836000
1!
1L
0E
#840000
0!
0L
1E
0#!
0"!
0u
0t
0,
0+
0e
0V
1U
0P
1O
0$
0#
1k
1&!
1%!
1(!
1'!
1f
1c
0R
1D
1B
1A
1@
1C
1?
#844000
1!
1L
0E
0s
0r
0o
0n
0}
0T
1\
1[
0=
0<
09
08
04
0b
#848000
0!
0L
1E
1$!
1Q
1v
1-
1x
1e
1V
0U
0O
1%
0k
0&!
0%!
0'!
1'
0f
0c
0D
0B
0A
0C
0?
#852000
1!
1L
0E
1|
1b
13
#856000
0!
0L
1E
1#!
0$!
1S
0Q
1u
0v
1,
0-
1y
0x
1W
0V
1$
0%
1X
1&!
1(
0'
1i
1a
1c
1>
1B
1/
#860000
1!
1L
0E
1m
1}
0|
1d
1R
17
14
03
1h
10
#864000
0!
0L
1E
1$!
0S
1v
1-
0y
1P
1%
0(!
0(
0@
#868000
1!
1L
0E
1n
0\
0[
0d
18
1^
1]
0b
0h
1_
0i
00
1`
0/
1.
#872000
0!
0L
1E
0#!
1"!
0$!
0u
1t
0v
0,
1+
0-
0W
1V
1U
0$
1#
0%
0X
0&!
1%!
0`
0>
0B
1A
0.
#876000
1!
1L
0E
1o
0m
1T
0^
0]
1b
19
07
0_
#880000
0!
0L
1E
1$!
1v
1-
0e
0U
1%
1k
0%!
1f
0c
0a
1D
0A
#884000
1!
1L
0E
1s
1r
1=
1<
#888000
0!
0L
1E
1#!
0$!
1u
0v
1,
0-
1e
1$
0%
0k
0f
0D
#892000
1!
1L
0E
#896000
0!
0L
1E
0#!
0"!
0u
0t
0,
0+
0e
0V
1U
0P
1O
0$
0#
1k
1&!
1%!
1(!
1'!
1f
1c
0R
1D
1B
1A
1@
1C
1?
#900000
1!
1L
0E
0s
0r
0o
0n
0}
0T
1\
1[
0=
0<
09
08
04
0b
#904000
0!
0L
1E
1$!
1Q
1v
1-
1x
1e
1V
0U
0O
1%
0k
0&!
0%!
0'!
1'
0f
0c
0D
0B
0A
0C
0?
#908000
1!
1L
0E
1|
1b
13
#912000
0!
0L
1E
1#!
0$!
1S
0Q
1u
0v
1,
0-
1y
0x
1W
0V
1$
0%
1X
1&!
1(
0'
1i
1a
1c
1>
1B
1/
#916000
1!
1L
0E
1m
1}
0|
1d
1R
17
14
03
1h
10
#920000
0!
0L
1E
1$!
0S
1v
1-
0y
1P
1%
0(!
0(
0@
#924000
1!
1L
0E
1n
0\
0[
0d
18
1^
1]
0b
0h
1_
0i
00
1`
0/
1.
